\relax 
\citation{doi:10.1002/andp.19013090310}
\citation{Mohr98codatarecommended}
\citation{Coleman_2012}
\citation{lab}
\citation{python}
\citation{2019arXiv190710121V}
\select@language{english}
\@writefile{toc}{\select@language{english}}
\@writefile{lof}{\select@language{english}}
\@writefile{lot}{\select@language{english}}
\@writefile{toc}{\contentsline {section}{\numberline {I}Introduction}{1}}
\@writefile{toc}{\contentsline {section}{\numberline {II}Theory}{1}}
\@writefile{toc}{\contentsline {section}{\numberline {III}Method}{1}}
\providecommand*\caption@xref[2]{\@setref\relax\@undefined{#1}}
\newlabel{scheme}{{\caption@xref {scheme}{ on input line 482}}{1}}
\@writefile{toc}{\contentsline {section}{\numberline {IV}Results}{1}}
\@writefile{lof}{\contentsline {figure}{\numberline {1}{\ignorespaces Diode threshold voltage measurement\relax }}{1}}
\newlabel{diode_reference}{{\caption@xref {diode_reference}{ on input line 502}}{1}}
\citation{Mohr98codatarecommended}
\citation{10.1093/ejo/cjr010}
\bibstyle{IEEEtran}
\bibstyle{ieeetran}
\bibdata{myrefs}
\bibcite{doi:10.1002/andp.19013090310}{1}
\bibcite{Mohr98codatarecommended}{2}
\bibcite{Coleman_2012}{3}
\bibcite{lab}{4}
\bibcite{python}{5}
\bibcite{2019arXiv190710121V}{6}
\bibcite{10.1093/ejo/cjr010}{7}
\@writefile{lof}{\contentsline {figure}{\numberline {2}{\ignorespaces Diode threshold voltage measurement\relax }}{2}}
\@writefile{toc}{\contentsline {section}{\numberline {V}Discussion}{2}}
\@writefile{toc}{\contentsline {subsubsection}{\numberline {\unhbox \voidb@x \hbox {V-}1}Proposed Improvements}{2}}
\@writefile{toc}{\contentsline {section}{\numberline {VI}Conclusion}{2}}
\@writefile{toc}{\contentsline {section}{Appendix}{2}}
\@writefile{toc}{\contentsline {subsection}{\numberline {A}Source code}{2}}
\@writefile{toc}{\contentsline {section}{References}{2}}
